{
  "questionCategories": [
    {
      "title":"Ağustos Test 1",
      "id":"agustos_test_1",
      "questions": [
        {
          "id": "1",
          "question":"Şekle göre aşağıdakiler hangisi doğrudur",
          "isQuestionImage": true,
          "isSectionImage": false,
          "imageURL":"https://firebasestorage.googleapis.com/v0/b/ehliyet-sinavim-01.appspot.com/o/Agustos%20Test%201%2F1.png?alt=media&token=2881447c-9081-4b13-a7ad-3ad097886b04",
          "sections": {
            "A":"2 numaralı aracın öncelikle geçmesi",
            "B":"1 numaralı aracın hızını arttırarak kavşağa girmesi",
            "C":"2 numaralı aracın 3 numaralı aracın geçmesini beklemesi",
            "D":"3 numaralı aracın 2 numaralı aracı ikaz ederek durdurması"
          },
          "selected":"",
          "correct": "A"
        },
        {
          "id": "2",
          "question":"Akaryakıt istasyonundan yola çıkmak isteyen şekildeki 2 numaralı araç sürücüsü ne yapmalıdır ?",
          "isQuestionImage": true,
          "isSectionImage": false,
          "imageURL":"https://firebasestorage.googleapis.com/v0/b/ehliyet-sinavim-01.appspot.com/o/Agustos%20Test%201%2F2.jpg?alt=media&token=94b833ff-3462-445a-9054-94b3cdaaa668",
          "sections": {
            "A":"Selektör yaparak 1 numarlı aracı durdurmalıdır.",
            "B":"Korna çalıp 1 numralı aracı yavaşlatmalıdır.",
            "C":"1 numaralı aracın geçmesini beklemelidir.",
            "D":"Geçiş hakkını kendi kullanmalıdır."
          },
          "selected":"",
          "correct": "C"
        },
        {
          "id": "3",
          "question":"Şekilde soru işareti (?) ile gösterilen ve aracın hızını ile torkunu ayarlayan aktarma organı hangisidir ?",
          "isQuestionImage": true,
          "isSectionImage": false,
          "imageURL":"https://firebasestorage.googleapis.com/v0/b/ehliyet-sinavim-01.appspot.com/o/Agustos%20Test%201%2F3.png?alt=media&token=eebdabbc-246a-4a7e-9665-80380583c66b",
          "sections": {
            "A":"Volan",
            "B":"Diferansiyel",
            "C":"Aks",
            "D":"Vites Kutusu"
          },
          "selected":"",
          "correct": "D"
        },
        {
          "id": "4",
          "question":"Seyir halindeki sürücünün, yaptığı bir hatadan dolayı eliyle veya yüz ifadesiyle diğer sürücülerden özür dilemesi trafikte aşağıdakilerden hangisinin kullanıldığına örnek olur ?",
          "isQuestionImage": false,
          "isSectionImage": false,
          "imageURL":"",
          "sections": {
            "A":"Beden dilinin",
            "B":"Bencilliği",
            "C":"İnatlaşmanın",
            "D":"Tahammülsüzlüğün"
          },
          "selected":"",
          "correct": "A"
        },
        {
          "id": "5",
          "question":"İlk yardımcı olarak bulunduğunuz bir kaza yerinde, kazazedelerden birinin öksürme ile ağzından açık kırmızı renkte, köpüklü kan geldiğini gözlemlediniz. Bu durumda, aşağıdaki organlardan hangisinin yaralandığını düşünürsünüz ?",
          "isQuestionImage": false,
          "isSectionImage": false,
          "imageURL":"",
          "sections": {
            "A":"Böbrek",
            "B":"Akciğer",
            "C":"Bağırsak",
            "D":"Karaciğer"
          },
          "selected":"",
          "correct": "B"
        },
        {
          "id": "6",
          "question":"Aşağıdakilerden hangisi süspansiyon sisteminde yer alır ?",
          "isQuestionImage": false,
          "isSectionImage": false,
          "imageURL":"",
          "sections": {
            "A":"Şaft",
            "B":"Debriyaj",
            "C":"Amortisör",
            "D":"Diferansiyel"
          },
          "selected":"",
          "correct": "C"
        },
        {
          "id": "7",
          "question":"Römork takmış otomobilin azami hızıi römorksuz halindeki azami hızına göre nasıl olmalıdır ?",
          "isQuestionImage": false,
          "isSectionImage": false,
          "imageURL":"",
          "sections": {
            "A":"Aynı",
            "B":"Yarısı kadar",
            "C":"10 km/saat daha az",
            "D":"10 km/saat daha fazla"
          },
          "selected":"",
          "correct": "C"
        },
        {
          "id": "8",
          "question":"2019 yılında trafik kazalarındaki ekonomik kayıp 24 milyar TL olup bu miktar yatırıma ayrılan payın yüzde ellisine yakındır. Bir yılda yatırıma ayrılan pay yaklaşık 50 milyar TL'dir. \n \n Yukarıdaki paragrafta vurgulanmaya çalışılan temel düşünce nedir ?",
          "isQuestionImage": false,
          "isSectionImage": false,
          "imageURL":"",
          "sections": {
            "A":"Trafik kazası yapmak sadece kader ile ifade edilebilir.",
            "B":"Trafik kazaları önemlidir.",
            "C":"Emniyet kemeri takmak hayat kurtarır.",
            "D":"Trafik kazaları neticesinde büyük ekonomik kayıplar meydana gelir."
          },
          "selected":"",
          "correct": "D"
        },
        {
          "id": "9",
          "question":"Boyun kırıklarında, yanlış taşıma ve gereksiz hareketler sonucu omurilik zedelenmesine bağlı olarak vücutta aşağıdakilerden hangisi meydana gelebilir ?",
          "isQuestionImage": false,
          "isSectionImage": false,
          "imageURL":"",
          "sections": {
            "A":"Felç",
            "B":"Saç dökülmesi",
            "C":"Bulantı ve kusma",
            "D":"Bedensel aktivitede artma"
          },
          "selected":"",
          "correct": "A"
        },
        {
          "id": "10",
          "question":"Şekildeki trafik işareti neyi ifade eder ?",
          "isQuestionImage": true,
          "isSectionImage": false,
          "imageURL":"https://firebasestorage.googleapis.com/v0/b/ehliyet-sinavim-01.appspot.com/o/Agustos%20Test%201%2F4.png?alt=media&token=fa811eb6-b110-4d55-8173-0bd0ed2c17e7",
          "sections": {
            "A":"Geçme yasağının sonu olduğunu",
            "B":"Öndeki taşıtın geçilmesinin yasak olduğunu",
            "C":"Bütün yasaklama ve kısıtlamaların sona erdiğini",
            "D":"Yük ve taşıtlarının öndeki taşıtları geçmelerinin yasak olduğunu"
          },
          "selected":"",
          "correct": "B"
        },
        {
          "id": "11",
          "question":"Trafik denetim görevlileriyle iletişim kuran sürücün, trafik adabı açısından özen göstermesi gereken davranış şekli aşağıdakilerden hangisidir ?",
          "isQuestionImage": false,
          "isSectionImage": false,
          "imageURL":"",
          "sections": {
            "A":"Karşısındaki kişiyi suçlaması",
            "B":"Empati kurmaktan kaçınması",
            "C":"Karşısındaki kişiye saygı duyması",
            "D":"Karşısındaki kişiyi dinlemekten kaçınması"
          },
          "selected":"",
          "correct": "C"
        },
        {
          "id": "12",
          "question":"Kontrolsüz kavşaklarda aşağıdakilerden hangisinin yapılması doğrudur ?",
          "isQuestionImage": false,
          "isSectionImage": false,
          "imageURL":"",
          "sections": {
            "A":"Şerit değiştirilmesi",
            "B":"Öndeki aracın geçilmesi",
            "C":"Aracın hızının arttırılması",
            "D":"Geçiş hakkı kuralına uyulması"
          },
          "selected":"",
          "correct": "D"
        },
        {
          "id": "13",
          "question":"Sürüş sırasında aracın gösterge panelinde bulunan şekildeki ikaz ışığının yanması sürücüye aşağıdakilerden hangisini bildirir ?",
          "isQuestionImage": true,
          "isSectionImage": false,
          "imageURL":"https://firebasestorage.googleapis.com/v0/b/ehliyet-sinavim-01.appspot.com/o/Agustos%20Test%201%2F5.png?alt=media&token=d838e428-aa38-44e0-b8d2-2e2ddffe0ce5",
          "sections": {
            "A":"Alternatörün şarj etmediğini",
            "B":"Emniyet kemerinin takılmadığını",
            "C":"Motor yağ basıncının düştüğünü",
            "D":"Motor soğutma suyu sıcaklığının yükseldiğini"
          },
          "selected":"",
          "correct": "A"
        },
        {
          "id": "14",
          "question":"Kaza yerindeki araçtan yarlının çıkarılmasında ilk aşama aşağıdakilerden hangisidir ?",
          "isQuestionImage": false,
          "isSectionImage": false,
          "imageURL":"",
          "sections": {
            "A":"Yaralının araçtan çıkarılabileceği çıkış yerinin sağlanması",
            "B":"Motorun durdurulup aracın sabitlenmesi",
            "C":"Yaralıyı taşımak için sedye getirilmesi",
            "D":"Tıbbi yardım istenmesi"
          },
          "selected":"",
          "correct": "B"
        },
        {
          "id": "15",
          "question":"Sol şeridi sürekli ihlal etmek yasaktır ve cezai işlem nedenidir. \n \n Bunu nedeni aşağıdakilerden hangisi olamaz ?",
          "isQuestionImage": false,
          "isSectionImage": false,
          "imageURL":"",
          "sections": {
            "A":"Sol şeridin sadece sollamalarda kullanılması",
            "B":"Trafikte araçların seyir halindeki düenini kolaylaştırmak",
            "C":"Arkadan yüksek hızda gelen lüks araçlara yol vermek",
            "D":"Geçiş üstünlüğü olan araçların geçişlerini kolaylaştırmak"
          },
          "selected":"",
          "correct": "C"
        },
        {
          "id": "16",
          "question":"Şekildeki trafik işaretinin anlamı nedir ?",
          "isQuestionImage": true,
          "isSectionImage": false,
          "imageURL":"https://firebasestorage.googleapis.com/v0/b/ehliyet-sinavim-01.appspot.com/o/Agustos%20Test%201%2F6.png?alt=media&token=c4bd5223-9f15-43f0-829b-05f342a4e1e1",
          "sections": {
            "A":"Hemzemin geçit",
            "B":"Kontrollü demir yolu geçidi",
            "C":"Kontrolsüz demir yolu geçidi",
            "D":"Tramvay hattı ile oluşan kavşak"
          },
          "selected":"",
          "correct": "D"
        },
        {
          "id": "17",
          "question":"Debriyaj balatasının erkenden bitmesinin sebebi aşağıdakilerden hangisidir ?",
          "isQuestionImage": false,
          "isSectionImage": false,
          "imageURL":"",
          "sections": {
            "A":"Taşıt hareket halinde iken ayağını devamlı debriyaj pedalı üzerine temas ettirilmesi",
            "B":"Debriyaj pedalına hiç basılmaması",
            "C":"Debriyaj pedal boşluğunun artması",
            "D":"Debriyaj telinin kopması"
          },
          "selected":"",
          "correct": "A"
        },
        {
          "id": "18",
          "question":"Aşağıdaki kazazedelerden hangisi kaza yerinden ilk önce taşınmalıdır ?",
          "isQuestionImage": false,
          "isSectionImage": false,
          "imageURL":"",
          "sections": {
            "A":"Ölmüş olan",
            "B":"Ağır kanamalı olan",
            "C":"Ayağında kırık olan",
            "D":"Dirseğinde çıkık olan"
          },
          "selected":"",
          "correct": "B"
        },
        {
          "id": "19",
          "question":"Devamlı yol çizgisi neyi bildirir ?",
          "isQuestionImage": false,
          "isSectionImage": false,
          "imageURL":"",
          "sections": {
            "A":"Sağ şeritten gidilemeyeceğini",
            "B":"Hiçbir sebeple durulamayacağını",
            "C":"Öndeki araçların geçilemeyeceğini",
            "D":"Sağ bankette durulamayacağını"
          },
          "selected":"",
          "correct": "C"
        },
        {
          "id": "20",
          "question":"Baş yaralanmalarında kafatası kırığını düşündüren en önemli bulgu hangisidir ?",
          "isQuestionImage": false,
          "isSectionImage": false,
          "imageURL":"",
          "sections": {
            "A":"Yüzün yaralanması",
            "B":"El bileğinin burkulması",
            "C":"Köprücük kemiğinin kırılması",
            "D":"Kulaktan ya da burundan kan ya da sıvı gelmesi"
          },
          "selected":"",
          "correct": "D"
        },
        {
          "id": "21",
          "question":"Aşağıdaki parçalardan hangisi arızalandığında motor yağında su, soğutma suyunda yağ olduğu gözlenir ?",
          "isQuestionImage": false,
          "isSectionImage": false,
          "imageURL":"",
          "sections": {
            "A":"Piston",
            "B":"Kam mili",
            "C":"Krank mili",
            "D":"Silindir kapak contası"
          },
          "selected":"",
          "correct": "D"
        },
        {
          "id": "22",
          "question":"Ülkemizde, her yıl yaklaşık olarak beş bin kişinin hayatını kaybettiği ve bu rakamın iki katı kadar da yaralanma olayının gerçekleştiği trafik kazalarının önünün kesilmesindeki en büyük etken aşağıdakilerden hangisidir ?",
          "isQuestionImage": false,
          "isSectionImage": false,
          "imageURL":"",
          "sections": {
            "A":"Otomotiv sanayisindeki gelişmelerin takip edilmesi",
            "B":"Bireylerde trafik kültürü ve bilincinin oluşturulması",
            "C":"Trafik suçlarına uygulanan cezaların arttırılması",
            "D":"Taşıt bakımlarının zamanında yaptırılması"
          },
          "selected":"",
          "correct": "B"
        },
        {
          "id": "23",
          "question":"Şekildeki gibi sağa dönüş yapmak isteyen sürücülerin aşağıdakilerden hangisini yapması yanlıştır ?",
          "isQuestionImage": true,
          "isSectionImage": false,
          "imageURL":"https://firebasestorage.googleapis.com/v0/b/ehliyet-sinavim-01.appspot.com/o/Agustos%20Test%201%2F7.png?alt=media&token=a63706da-3b83-4b04-ba1c-4cae40ff3aa7",
          "sections": {
            "A":"Hızlarını azaltmaları",
            "B":"Dar bir kavisle dönmeleri",
            "C":"Dönüşlerini en sol şeritte tamamlamaları",
            "D":"Bulundukları şeritte en sağa yaklaşmaları"
          },
          "selected":"",
          "correct": "C"
        },
        {
          "id": "24",
          "question":"Yetişkinde yuygulanan kalp masajı uygulama bölgesi ve bası derinliği şağıdakilerin hangisinde doğru olarak verilmiştir ?",
          "isQuestionImage": false,
          "isSectionImage": false,
          "imageURL":"",
          "sections": {
            "A":"Kaburganın sağ alt bölgesi -> 1 cm",
            "B":"Karnın sol üst bölgesi -> 3 cm",
            "C":"Göğüs kemiğinin ortası -> 5 cm",
            "D":"Göğüs kemiğinin 1/8'lik üst kısmı -> 7 cm"
          },
          "selected":"",
          "correct": "C"
        },
        {
          "id": "25",
          "question":"Ticari amaçlı yük veya yolcu taşımacılığında kullanılan araç resimleri verilmiştir. \n \n Bu araçlardan hangilerini şehirler arasında kullanan bir şoförün 24 saat süre içerisinde; devamlı olarak 4,5 saatten fazla sürmesi yasaktır ?",
          "isQuestionImage": true,
          "isSectionImage": false,
          "imageURL":"https://firebasestorage.googleapis.com/v0/b/ehliyet-sinavim-01.appspot.com/o/Agustos%20Test%201%2F8.png?alt=media&token=7bda5eb2-bea3-47b5-9919-883342c92a2d",
          "sections": {
            "A":"Yalnız I",
            "B":"I ve II",
            "C":"II ve III",
            "D":"I, II ve III"
          },
          "selected":"",
          "correct": "D"
        },
        {
          "id": "26",
          "question":"Bacakta turnike uygulama bölgesi neresidir ?",
          "isQuestionImage": false,
          "isSectionImage": false,
          "imageURL":"",
          "sections": {
            "A":"Diz ile kalça arası",
            "B":"Ayak bileğinin alt kısmı",
            "C":"Ayak bileğinin üst kısmı",
            "D":"Diz kapağının olduğu bölge"
          },
          "selected":"",
          "correct": "A"
        },
        {
          "id": "27",
          "question":"I. Dikkatin dağılması \nII.Kural ihlallerinin artması \nIII.Sabırsızlık ve tahammülsüzlüğün azalması \n \nVerilenlerden hangilerinin, trafikte öfke duygusuna kapılan sürücülerde görülme olasılığı diğer sürücülere göre daha fazladır ?",
          "isQuestionImage": false,
          "isSectionImage": false,
          "imageURL":"",
          "sections": {
            "A":"Yalnız I",
            "B":"I ve II",
            "C":"II ve III",
            "D":"I, II ve III"
          },
          "selected":"",
          "correct": "B"
        },
        {
          "id": "28",
          "question":"Şekildeki trafik işareti aşağıdakilerden hangisine yaklaşıldığını bildirir ?",
          "isQuestionImage": true,
          "isSectionImage": false,
          "imageURL":"https://firebasestorage.googleapis.com/v0/b/ehliyet-sinavim-01.appspot.com/o/Agustos%20Test%201%2F9.png?alt=media&token=81c7cdf1-839f-4657-a565-dcf7f09d5f18",
          "sections": {
            "A":"Dönel kavşağa",
            "B":"Açılan köprüye",
            "C":"Ana yol - tali yol kavşağına",
            "D":"Kontrollü demir yolu geçidine"
          },
          "selected":"",
          "correct": "C"
        },
        {
          "id": "29",
          "question":"Aşağıda soru işareti (?) ile gösterilen ve temel yaşam deteğinin 1. aşaması olan uygulama hangi seçenekte verilmiştir ?",
          "isQuestionImage": true,
          "isSectionImage": false,
          "imageURL":"https://firebasestorage.googleapis.com/v0/b/ehliyet-sinavim-01.appspot.com/o/Agustos%20Test%201%2F10.png?alt=media&token=130d0710-99b1-40bc-83af-790b321e2fce",
          "sections": {
            "A":"Kırık kontrolünün yapılması",
            "B":"Kanamanın kontrol edilmesi",
            "C":"Şok pozisyonunun verilmesi",
            "D":"Hava yolunun açıklığının sağlanması"
          },
          "selected":"",
          "correct": "D"
        },
        {
          "id": "30",
          "question":"Monoküler (tek gözü gören) kişiler, aşağıda verilen sürücü belgesi sınıflarından hangisini almak için başvuru yapabilir ?",
          "isQuestionImage": false,
          "isSectionImage": false,
          "imageURL":"",
          "sections": {
            "A":"B",
            "B":"C",
            "C":"D",
            "D":"E"
          },
          "selected":"",
          "correct": "A"
        },
        {
          "id": "31",
          "question":"Radyatör kapağının arızalı olması aşağıdakilerden hangisine neden olabilir ?",
          "isQuestionImage": false,
          "isSectionImage": false,
          "imageURL":"",
          "sections": {
            "A":"Motorun sağuk çalışmasına",
            "B":"Motorun hararet yapmasına",
            "C":"Fren hidroliğinin azalmasına",
            "D":"Bijon somunlarının gevşemesine"
          },
          "selected":"",
          "correct": "B"
        },
        {
          "id": "32",
          "question":"Koma halindeki kazazedeye aşağıdakilerden hangisi yapılmaz ?",
          "isQuestionImage": false,
          "isSectionImage": false,
          "imageURL":"",
          "sections": {
            "A":"Solunum ve nabız kontrolü",
            "B":"Sıkan giysilerin gevşetilmesi",
            "C":"Ağızdan yiyecek, içecek verilmesi",
            "D":"Ağız içinde yabancı cisim olup olmadığının kontrolü"
          },
          "selected":"",
          "correct": "C"
        },
        {
          "id": "33",
          "question":"Arkadan çarpma şeklindeki trafik kazalarının en önemli sebebi aşağıdakilerden hangisidir ?",
          "isQuestionImage": false,
          "isSectionImage": false,
          "imageURL":"",
          "sections": {
            "A":"Öndeki aracın durması",
            "B":"Öndeki aracın yavaşlaması",
            "C":"Görüş mesafesinin kötü olması",
            "D":"Takip mesafesi kurallarına uyulmaması"
          },
          "selected":"",
          "correct": "D"
        },
        {
          "id": "34",
          "question":"Araçta, yeni motorun alıştırılması(rodaj) döneminde aşağıdakilerden hangisine uyulmalıdır ?",
          "isQuestionImage": false,
          "isSectionImage": false,
          "imageURL":"",
          "sections": {
            "A":"Fazla süratten kaçınılmalıdır.",
            "B":"Ani duruş ve kalkış yapılmalıdır.",
            "C":"Sürekli sert ve ani fren yapılmalıdır.",
            "D":"Motor yüksek devirde çalıştırılmalıdır."
          },
          "selected":"",
          "correct": "A"
        },
        {
          "id": "35",
          "question":"Aşağıdakilerden hangisi çıkığın tanımıdır ?",
          "isQuestionImage": false,
          "isSectionImage": false,
          "imageURL":"",
          "sections": {
            "A":"Eklem bağları ve yüzeylerinin zedelenmesi",
            "B":"Eklem çevresindeki derinin zedelenmesi",
            "C":"Eklem yüzeylerinin birbirinden ayrılması",
            "D":"Eklem bağlarının kopması"
          },
          "selected":"",
          "correct": "C"
        },
        {
          "id": "36",
          "question":"I. İp, tel gibi kesici malzemelerin kullanılması \nII. Uygulamanınyapıldığı saatin bir kağıda yazılıp kazazedenin üzerine asılması \nIII.Uzvun koptuğu bölgeye en yakın ve deri bütünlüğü bozulmamış olan yere uygulanması \n\nVerilenlerden hangileri turnike uygulamasında dikkat edilecek hususlardandır ?",
          "isQuestionImage": false,
          "isSectionImage": false,
          "imageURL":"",
          "sections": {
            "A":"Yalnız I",
            "B":"I ve II",
            "C":"II ve III",
            "D":"I, II ve III"
          },
          "selected":"",
          "correct": "C"
        },
        {
          "id": "37",
          "question":"I. Kazanın yeri doğru ve açık şekilde belirtilmelidir. \nII. Yaralıların genel durumları ve sayıları bildirilmelidir. \nIII. Çağrıyı yapan, kimlik bilgilerini ve telefon numarasını vermelidir. \n\nYUkarıdakilerden hangileri ilk yardımda haberleşme ilkelerindendir ?",
          "isQuestionImage": false,
          "isSectionImage": false,
          "imageURL":"",
          "sections": {
            "A":"Yalnız I",
            "B":"I ve II",
            "C":"II ve III",
            "D":"I, II ve III"
          },
          "selected":"",
          "correct": "D"
        },
        {
          "id": "38",
          "question":"Aşağıdakilerden hangisi tehlikeli viraj yön levhasıdır ?",
          "isQuestionImage": false,
          "isSectionImage": true,
          "imageURL":"",
          "sections": {
            "A":"https://firebasestorage.googleapis.com/v0/b/ehliyet-sinavim-01.appspot.com/o/Agustos%20Test%201%2F11.png?alt=media&token=5ab1a7be-ff61-42ef-8b57-96de7fa908ee",
            "B":"https://firebasestorage.googleapis.com/v0/b/ehliyet-sinavim-01.appspot.com/o/Agustos%20Test%201%2F14.png?alt=media&token=9552f8dc-0582-445a-9245-5fd555ecf528",
            "C":"https://firebasestorage.googleapis.com/v0/b/ehliyet-sinavim-01.appspot.com/o/Agustos%20Test%201%2F12.png?alt=media&token=0ff70223-01e0-442d-a604-ffe70841dda7",
            "D":"https://firebasestorage.googleapis.com/v0/b/ehliyet-sinavim-01.appspot.com/o/Agustos%20Test%201%2F13.png?alt=media&token=6132a613-5b55-46f2-95d4-bc092ea3679d"
          },
          "selected":"",
          "correct": "A"
        },
        {
          "id": "39",
          "question":"Araçlar yüklenirken aşağıdakilerden hangisinın yapılması yasaktır ?",
          "isQuestionImage": false,
          "isSectionImage": false,
          "imageURL":"",
          "sections": {
            "A":"Gabarinin aşılması",
            "B":"Araç dengesinin korunması",
            "C":"Trafik güvenliğinin dikkate alınması",
            "D":"Taşıma sınırına ve dingil ağırlığına uyulması"
          },
          "selected":"",
          "correct": "A"
        },
        {
          "id": "40",
          "question":"Motorlu bisiklet, motosiklet ve sürücüleri ile ilgili olarak aşağıdakilerden hangisinin yapılması yasaktır ?",
          "isQuestionImage": false,
          "isSectionImage": false,
          "imageURL":"",
          "sections": {
            "A":"Geçme yaparken sinyal verilmesi",
            "B":"Yaya yolunda sürülmesi",
            "C":"Tehlikeli madde taşıyan araçların geçilmesi",
            "D":"Gidiş yönüne göre yolun en sağından seyredilmesi"
          },
          "selected":"",
          "correct": "B"
        },
        {
          "id": "41",
          "question":"Aşağıdaki davranışlardan hangisi trafik adabına sahip bir sürücü için uygundur ?",
          "isQuestionImage": false,
          "isSectionImage": false,
          "imageURL":"",
          "sections": {
            "A":"Trafik polisi yoksa kırmızı ışıkta geçmek",
            "B":"Sürekli şerit değiştirerek araç kullanmak",
            "C":"Denetim korkusu olmadan emniyet kemerini takmak",
            "D":"Elektronik denetleme sisteminin olmadığı yerlerde hız limitlerini aşmak"
          },
          "selected":"",
          "correct": "C"
        },
        {
          "id": "42",
          "question":"Işıklı trafik işaret cihazında, hangisinin yanması yolun trafiğe kapanmak üzere olduğunu bildirir ?",
          "isQuestionImage": false,
          "isSectionImage": false,
          "imageURL":"",
          "sections": {
            "A":"Yeşil ışıktan sonra yanan sarı ışık",
            "B":"Kırmızı ışıkla birlikte yanan sarı ışık",
            "C":"Aralıklı yanıp sönen sarı ışık",
            "D":"Aralıklı yanıp sönen kırmızı ışık"
          },
          "selected":"",
          "correct": "A"
        },
        {
          "id": "43",
          "question":"Şekle göre, yaya yolu ayrılmamış kara yolunda, olağan olarak yayaların ve hayvanların kullanacağı 1 ve 4 numaralı kısımlara ne ad verilir ?",
          "isQuestionImage": true,
          "isSectionImage": false,
          "imageURL":"https://firebasestorage.googleapis.com/v0/b/ehliyet-sinavim-01.appspot.com/o/Agustos%20Test%201%2F15.png?alt=media&token=b9b22eaf-e9e5-4f76-bf38-fd0bc0016b93",
          "sections": {
            "A":"Taşıt Yolu",
            "B":"Banket",
            "C":"Yaya geçidi",
            "D":"Platform"
          },
          "selected":"",
          "correct": "B"
        },
        {
          "id": "44",
          "question":"Şekle göre hangi numaralı araçlar hatalı park etmiştir ?",
          "isQuestionImage": true,
          "isSectionImage": false,
          "imageURL":"https://firebasestorage.googleapis.com/v0/b/ehliyet-sinavim-01.appspot.com/o/Agustos%20Test%201%2F16.png?alt=media&token=b40e1609-49ae-4823-b8cc-5d0f3af11945",
          "sections": {
            "A":"Yalnız III",
            "B":"I ve II",
            "C":"I ve III",
            "D":"I, II ve III"
          },
          "selected":"",
          "correct": "C"
        },
        {
          "id": "45",
          "question":"Kavrama (debriyaj) sistemi, motorun hareketinin hangi aktarma organına iletilmesinde veya kesilmesinde görev yapar ?",
          "isQuestionImage": false,
          "isSectionImage": false,
          "imageURL":"",
          "sections": {
            "A":"Volana",
            "B":"Marş motoruna",
            "C":"Fren balatalarına",
            "D":"Vites kutusuna"
          },
          "selected":"",
          "correct": "D"
        },
        {
          "id": "46",
          "question":"Bir trafik kazası sonucunda yaralanan kazazedenin durumunun ağırlığını ve ciddeyitin gösteren bulgulardan biride bilinç düzeyidir. \n \nAşağıdakilerden hangisi 1. derece bilinç düzeyini gösteren bir bulgudur ?",
          "isQuestionImage": false,
          "isSectionImage": false,
          "imageURL":"",
          "sections": {
            "A":"Sözlü ve gürültülü uyarılara cevap vermesi",
            "B":"Göz bebeklerinin farklı büyüklükte olması",
            "C":"Ağrılı uyaranlara cevap vermesi",
            "D":"Tüm uyaranlara tepkisiz olması"
          },
          "selected":"",
          "correct": "A"
        },
        {
          "id": "47",
          "question":"Araç hareket ettirilmek istenildiğinde rahat harekete geçmiyor, zorlanıyorsa sebebi aşağıdakilerden hangisidir ?",
          "isQuestionImage": false,
          "isSectionImage": false,
          "imageURL":"",
          "sections": {
            "A":"Jigle çekilidir.",
            "B":"El freni çekilidir.",
            "C":"Motor yağı eksiktir.",
            "D":"Lastik havası fazladır."
          },
          "selected":"",
          "correct": "B"
        },
        {
          "id": "48",
          "question":"Şekildeki kara yolu üzerinde soru işareti (?) ile gösterilen, çizgilerle belirlenmiş alana ne ad verilir ?",
          "isQuestionImage": true,
          "isSectionImage": false,
          "imageURL":"https://firebasestorage.googleapis.com/v0/b/ehliyet-sinavim-01.appspot.com/o/Agustos%20Test%201%2F17.png?alt=media&token=7d1c2f7d-d3b6-437a-b556-9189f86f00b0",
          "sections": {
            "A":"Banket",
            "B":"Yaya yolu",
            "C":"Yaya geçidi",
            "D":"Bisiklet yolu"
          },
          "selected":"",
          "correct": "C"
        },
        {
          "id": "49",
          "question":"2918 sayılı trafik kanununa göre ilk defa sürücü belgesi alanlar ile herhangi sebeple sürücü belgesi iptal edilmiş olup da yeniden sürücü belgesi alanlar, belgenin alındığı tarihten itibaren kaç yıl süreyle aday sürücü olarak kabul edilir ?",
          "isQuestionImage": false,
          "isSectionImage": false,
          "imageURL":"",
          "sections": {
            "A":"2",
            "B":"3",
            "C":"5",
            "D":"10"
          },
          "selected":"",
          "correct": "A"
        },
        {
          "id": "50",
          "question":"Şekle göre, hangi numaralı araç sürücüsünün davranışı asli kusurlu halleriden sayılır ?",
          "isQuestionImage": true,
          "isSectionImage": false,
          "imageURL":"https://firebasestorage.googleapis.com/v0/b/ehliyet-sinavim-01.appspot.com/o/Agustos%20Test%201%2F18.png?alt=media&token=33f886c1-a849-4775-bcf3-67ffc24614f1",
          "sections": {
            "A":"1",
            "B":"2",
            "C":"3",
            "D":"4"
          },
          "selected":"",
          "correct": "B"
        }
      ]
    },
    {
      "title":"Ağustos Test 2",
      "id":"agustos_test_2",
      "questions": [
        {
          "id": "1",
          "question":"Şekle göre aşağıdakiler hangisi doğrudur(second test)",
          "isQuestionImage": true,
          "isSectionImage": false,
          "imageURL":"https://firebasestorage.googleapis.com/v0/b/ehliyet-sinavim-01.appspot.com/o/Agustos%20Test%201%2F1.png?alt=media&token=2881447c-9081-4b13-a7ad-3ad097886b04",
          "sections": {
            "A":"2 numaralı aracın öncelikle geçmesi",
            "B":"1 numaralı aracın hızını arttırarak kavşağa girmesi",
            "C":"2 numaralı aracın 3 numaralı aracın geçmesini beklemesi",
            "D":"3 numaralı aracın 2 numaralı aracı ikaz ederek durdurması"
          },
          "selected":"",
          "correct": "A"
        },
        {
          "id": "2",
          "question":"Akaryakıt istasyonundan yola çıkmak isteyen şekildeki 2 numaralı araç sürücüsü ne yapmalıdır ?",
          "isQuestionImage": true,
          "isSectionImage": false,
          "imageURL":"https://firebasestorage.googleapis.com/v0/b/ehliyet-sinavim-01.appspot.com/o/Agustos%20Test%201%2F2.jpg?alt=media&token=94b833ff-3462-445a-9054-94b3cdaaa668",
          "sections": {
            "A":"Selektör yaparak 1 numarlı aracı durdurmalıdır.",
            "B":"Korna çalıp 1 numralı aracı yavaşlatmalıdır.",
            "C":"1 numaralı aracın geçmesini beklemelidir.",
            "D":"Geçiş hakkını kendi kullanmalıdır."
          },
          "selected":"",
          "correct": "C"
        },
        {
          "id": "3",
          "question":"Şekilde soru işareti (?) ile gösterilen ve aracın hızını ile torkunu ayarlayan aktarma organı hangisidir ?",
          "isQuestionImage": true,
          "isSectionImage": false,
          "imageURL":"https://firebasestorage.googleapis.com/v0/b/ehliyet-sinavim-01.appspot.com/o/Agustos%20Test%201%2F3.png?alt=media&token=eebdabbc-246a-4a7e-9665-80380583c66b",
          "sections": {
            "A":"Volan",
            "B":"Diferansiyel",
            "C":"Aks",
            "D":"Vites Kutusu"
          },
          "selected":"",
          "correct": "D"
        },
        {
          "id": "4",
          "question":"Seyir halindeki sürücünün, yaptığı bir hatadan dolayı eliyle veya yüz ifadesiyle diğer sürücülerden özür dilemesi trafikte aşağıdakilerden hangisinin kullanıldığına örnek olur ?",
          "isQuestionImage": false,
          "isSectionImage": false,
          "imageURL":"",
          "sections": {
            "A":"Beden dilinin",
            "B":"Bencilliği",
            "C":"İnatlaşmanın",
            "D":"Tahammülsüzlüğün"
          },
          "selected":"",
          "correct": "A"
        },
        {
          "id": "5",
          "question":"İlk yardımcı olarak bulunduğunuz bir kaza yerinde, kazazedelerden birinin öksürme ile ağzından açık kırmızı renkte, köpüklü kan geldiğini gözlemlediniz. Bu durumda, aşağıdaki organlardan hangisinin yaralandığını düşünürsünüz ?",
          "isQuestionImage": false,
          "isSectionImage": false,
          "imageURL":"",
          "sections": {
            "A":"Böbrek",
            "B":"Akciğer",
            "C":"Bağırsak",
            "D":"Karaciğer"
          },
          "selected":"",
          "correct": "B"
        },
        {
          "id": "6",
          "question":"Aşağıdakilerden hangisi süspansiyon sisteminde yer alır ?",
          "isQuestionImage": false,
          "isSectionImage": false,
          "imageURL":"",
          "sections": {
            "A":"Şaft",
            "B":"Debriyaj",
            "C":"Amortisör",
            "D":"Diferansiyel"
          },
          "selected":"",
          "correct": "C"
        },
        {
          "id": "7",
          "question":"Römork takmış otomobilin azami hızıi römorksuz halindeki azami hızına göre nasıl olmalıdır ?",
          "isQuestionImage": false,
          "isSectionImage": false,
          "imageURL":"",
          "sections": {
            "A":"Aynı",
            "B":"Yarısı kadar",
            "C":"10 km/saat daha az",
            "D":"10 km/saat daha fazla"
          },
          "selected":"",
          "correct": "C"
        },
        {
          "id": "8",
          "question":"2019 yılında trafik kazalarındaki ekonomik kayıp 24 milyar TL olup bu miktar yatırıma ayrılan payın yüzde ellisine yakındır. Bir yılda yatırıma ayrılan pay yaklaşık 50 milyar TL'dir. \n \n Yukarıdaki paragrafta vurgulanmaya çalışılan temel düşünce nedir ?",
          "isQuestionImage": false,
          "isSectionImage": false,
          "imageURL":"",
          "sections": {
            "A":"Trafik kazası yapmak sadece kader ile ifade edilebilir.",
            "B":"Trafik kazaları önemlidir.",
            "C":"Emniyet kemeri takmak hayat kurtarır.",
            "D":"Trafik kazaları neticesinde büyük ekonomik kayıplar meydana gelir."
          },
          "selected":"",
          "correct": "D"
        },
        {
          "id": "9",
          "question":"Boyun kırıklarında, yanlış taşıma ve gereksiz hareketler sonucu omurilik zedelenmesine bağlı olarak vücutta aşağıdakilerden hangisi meydana gelebilir ?",
          "isQuestionImage": false,
          "isSectionImage": false,
          "imageURL":"",
          "sections": {
            "A":"Felç",
            "B":"Saç dökülmesi",
            "C":"Bulantı ve kusma",
            "D":"Bedensel aktivitede artma"
          },
          "selected":"",
          "correct": "A"
        },
        {
          "id": "10",
          "question":"Şekildeki trafik işareti neyi ifade eder ?",
          "isQuestionImage": true,
          "isSectionImage": false,
          "imageURL":"https://firebasestorage.googleapis.com/v0/b/ehliyet-sinavim-01.appspot.com/o/Agustos%20Test%201%2F4.png?alt=media&token=fa811eb6-b110-4d55-8173-0bd0ed2c17e7",
          "sections": {
            "A":"Geçme yasağının sonu olduğunu",
            "B":"Öndeki taşıtın geçilmesinin yasak olduğunu",
            "C":"Bütün yasaklama ve kısıtlamaların sona erdiğini",
            "D":"Yük ve taşıtlarının öndeki taşıtları geçmelerinin yasak olduğunu"
          },
          "selected":"",
          "correct": "B"
        },
        {
          "id": "11",
          "question":"Trafik denetim görevlileriyle iletişim kuran sürücün, trafik adabı açısından özen göstermesi gereken davranış şekli aşağıdakilerden hangisidir ?",
          "isQuestionImage": false,
          "isSectionImage": false,
          "imageURL":"",
          "sections": {
            "A":"Karşısındaki kişiyi suçlaması",
            "B":"Empati kurmaktan kaçınması",
            "C":"Karşısındaki kişiye saygı duyması",
            "D":"Karşısındaki kişiyi dinlemekten kaçınması"
          },
          "selected":"",
          "correct": "C"
        },
        {
          "id": "12",
          "question":"Kontrolsüz kavşaklarda aşağıdakilerden hangisinin yapılması doğrudur ?",
          "isQuestionImage": false,
          "isSectionImage": false,
          "imageURL":"",
          "sections": {
            "A":"Şerit değiştirilmesi",
            "B":"Öndeki aracın geçilmesi",
            "C":"Aracın hızının arttırılması",
            "D":"Geçiş hakkı kuralına uyulması"
          },
          "selected":"",
          "correct": "D"
        },
        {
          "id": "13",
          "question":"Sürüş sırasında aracın gösterge panelinde bulunan şekildeki ikaz ışığının yanması sürücüye aşağıdakilerden hangisini bildirir ?",
          "isQuestionImage": true,
          "isSectionImage": false,
          "imageURL":"https://firebasestorage.googleapis.com/v0/b/ehliyet-sinavim-01.appspot.com/o/Agustos%20Test%201%2F5.png?alt=media&token=d838e428-aa38-44e0-b8d2-2e2ddffe0ce5",
          "sections": {
            "A":"Alternatörün şarj etmediğini",
            "B":"Emniyet kemerinin takılmadığını",
            "C":"Motor yağ basıncının düştüğünü",
            "D":"Motor soğutma suyu sıcaklığının yükseldiğini"
          },
          "selected":"",
          "correct": "A"
        },
        {
          "id": "14",
          "question":"Kaza yerindeki araçtan yarlının çıkarılmasında ilk aşama aşağıdakilerden hangisidir ?",
          "isQuestionImage": false,
          "isSectionImage": false,
          "imageURL":"",
          "sections": {
            "A":"Yaralının araçtan çıkarılabileceği çıkış yerinin sağlanması",
            "B":"Motorun durdurulup aracın sabitlenmesi",
            "C":"Yaralıyı taşımak için sedye getirilmesi",
            "D":"Tıbbi yardım istenmesi"
          },
          "selected":"",
          "correct": "B"
        },
        {
          "id": "15",
          "question":"Sol şeridi sürekli ihlal etmek yasaktır ve cezai işlem nedenidir. \n \n Bunu nedeni aşağıdakilerden hangisi olamaz ?",
          "isQuestionImage": false,
          "isSectionImage": false,
          "imageURL":"",
          "sections": {
            "A":"Sol şeridin sadece sollamalarda kullanılması",
            "B":"Trafikte araçların seyir halindeki düenini kolaylaştırmak",
            "C":"Arkadan yüksek hızda gelen lüks araçlara yol vermek",
            "D":"Geçiş üstünlüğü olan araçların geçişlerini kolaylaştırmak"
          },
          "selected":"",
          "correct": "C"
        },
        {
          "id": "16",
          "question":"Şekildeki trafik işaretinin anlamı nedir ?",
          "isQuestionImage": true,
          "isSectionImage": false,
          "imageURL":"https://firebasestorage.googleapis.com/v0/b/ehliyet-sinavim-01.appspot.com/o/Agustos%20Test%201%2F6.png?alt=media&token=c4bd5223-9f15-43f0-829b-05f342a4e1e1",
          "sections": {
            "A":"Hemzemin geçit",
            "B":"Kontrollü demir yolu geçidi",
            "C":"Kontrolsüz demir yolu geçidi",
            "D":"Tramvay hattı ile oluşan kavşak"
          },
          "selected":"",
          "correct": "D"
        },
        {
          "id": "17",
          "question":"Debriyaj balatasının erkenden bitmesinin sebebi aşağıdakilerden hangisidir ?",
          "isQuestionImage": false,
          "isSectionImage": false,
          "imageURL":"",
          "sections": {
            "A":"Taşıt hareket halinde iken ayağını devamlı debriyaj pedalı üzerine temas ettirilmesi",
            "B":"Debriyaj pedalına hiç basılmaması",
            "C":"Debriyaj pedal boşluğunun artması",
            "D":"Debriyaj telinin kopması"
          },
          "selected":"",
          "correct": "A"
        },
        {
          "id": "18",
          "question":"Aşağıdaki kazazedelerden hangisi kaza yerinden ilk önce taşınmalıdır ?",
          "isQuestionImage": false,
          "isSectionImage": false,
          "imageURL":"",
          "sections": {
            "A":"Ölmüş olan",
            "B":"Ağır kanamalı olan",
            "C":"Ayağında kırık olan",
            "D":"Dirseğinde çıkık olan"
          },
          "selected":"",
          "correct": "B"
        },
        {
          "id": "19",
          "question":"Devamlı yol çizgisi neyi bildirir ?",
          "isQuestionImage": false,
          "isSectionImage": false,
          "imageURL":"",
          "sections": {
            "A":"Sağ şeritten gidilemeyeceğini",
            "B":"Hiçbir sebeple durulamayacağını",
            "C":"Öndeki araçların geçilemeyeceğini",
            "D":"Sağ bankette durulamayacağını"
          },
          "selected":"",
          "correct": "C"
        },
        {
          "id": "20",
          "question":"Baş yaralanmalarında kafatası kırığını düşündüren en önemli bulgu hangisidir ?",
          "isQuestionImage": false,
          "isSectionImage": false,
          "imageURL":"",
          "sections": {
            "A":"Yüzün yaralanması",
            "B":"El bileğinin burkulması",
            "C":"Köprücük kemiğinin kırılması",
            "D":"Kulaktan ya da burundan kan ya da sıvı gelmesi"
          },
          "selected":"",
          "correct": "D"
        },
        {
          "id": "21",
          "question":"Aşağıdaki parçalardan hangisi arızalandığında motor yağında su, soğutma suyunda yağ olduğu gözlenir ?",
          "isQuestionImage": false,
          "isSectionImage": false,
          "imageURL":"",
          "sections": {
            "A":"Piston",
            "B":"Kam mili",
            "C":"Krank mili",
            "D":"Silindir kapak contası"
          },
          "selected":"",
          "correct": "D"
        },
        {
          "id": "22",
          "question":"Ülkemizde, her yıl yaklaşık olarak beş bin kişinin hayatını kaybettiği ve bu rakamın iki katı kadar da yaralanma olayının gerçekleştiği trafik kazalarının önünün kesilmesindeki en büyük etken aşağıdakilerden hangisidir ?",
          "isQuestionImage": false,
          "isSectionImage": false,
          "imageURL":"",
          "sections": {
            "A":"Otomotiv sanayisindeki gelişmelerin takip edilmesi",
            "B":"Bireylerde trafik kültürü ve bilincinin oluşturulması",
            "C":"Trafik suçlarına uygulanan cezaların arttırılması",
            "D":"Taşıt bakımlarının zamanında yaptırılması"
          },
          "selected":"",
          "correct": "B"
        },
        {
          "id": "23",
          "question":"Şekildeki gibi sağa dönüş yapmak isteyen sürücülerin aşağıdakilerden hangisini yapması yanlıştır ?",
          "isQuestionImage": true,
          "isSectionImage": false,
          "imageURL":"https://firebasestorage.googleapis.com/v0/b/ehliyet-sinavim-01.appspot.com/o/Agustos%20Test%201%2F7.png?alt=media&token=a63706da-3b83-4b04-ba1c-4cae40ff3aa7",
          "sections": {
            "A":"Hızlarını azaltmaları",
            "B":"Dar bir kavisle dönmeleri",
            "C":"Dönüşlerini en sol şeritte tamamlamaları",
            "D":"Bulundukları şeritte en sağa yaklaşmaları"
          },
          "selected":"",
          "correct": "C"
        },
        {
          "id": "24",
          "question":"Yetişkinde yuygulanan kalp masajı uygulama bölgesi ve bası derinliği şağıdakilerin hangisinde doğru olarak verilmiştir ?",
          "isQuestionImage": false,
          "isSectionImage": false,
          "imageURL":"",
          "sections": {
            "A":"Kaburganın sağ alt bölgesi -> 1 cm",
            "B":"Karnın sol üst bölgesi -> 3 cm",
            "C":"Göğüs kemiğinin ortası -> 5 cm",
            "D":"Göğüs kemiğinin 1/8'lik üst kısmı -> 7 cm"
          },
          "selected":"",
          "correct": "C"
        },
        {
          "id": "25",
          "question":"Ticari amaçlı yük veya yolcu taşımacılığında kullanılan araç resimleri verilmiştir. \n \n Bu araçlardan hangilerini şehirler arasında kullanan bir şoförün 24 saat süre içerisinde; devamlı olarak 4,5 saatten fazla sürmesi yasaktır ?",
          "isQuestionImage": true,
          "isSectionImage": false,
          "imageURL":"https://firebasestorage.googleapis.com/v0/b/ehliyet-sinavim-01.appspot.com/o/Agustos%20Test%201%2F8.png?alt=media&token=7bda5eb2-bea3-47b5-9919-883342c92a2d",
          "sections": {
            "A":"Yalnız I",
            "B":"I ve II",
            "C":"II ve III",
            "D":"I, II ve III"
          },
          "selected":"",
          "correct": "D"
        },
        {
          "id": "26",
          "question":"Bacakta turnike uygulama bölgesi neresidir ?",
          "isQuestionImage": false,
          "isSectionImage": false,
          "imageURL":"",
          "sections": {
            "A":"Diz ile kalça arası",
            "B":"Ayak bileğinin alt kısmı",
            "C":"Ayak bileğinin üst kısmı",
            "D":"Diz kapağının olduğu bölge"
          },
          "selected":"",
          "correct": "A"
        },
        {
          "id": "27",
          "question":"I. Dikkatin dağılması \nII.Kural ihlallerinin artması \nIII.Sabırsızlık ve tahammülsüzlüğün azalması \n \nVerilenlerden hangilerinin, trafikte öfke duygusuna kapılan sürücülerde görülme olasılığı diğer sürücülere göre daha fazladır ?",
          "isQuestionImage": false,
          "isSectionImage": false,
          "imageURL":"",
          "sections": {
            "A":"Yalnız I",
            "B":"I ve II",
            "C":"II ve III",
            "D":"I, II ve III"
          },
          "selected":"",
          "correct": "B"
        },
        {
          "id": "28",
          "question":"Şekildeki trafik işareti aşağıdakilerden hangisine yaklaşıldığını bildirir ?",
          "isQuestionImage": true,
          "isSectionImage": false,
          "imageURL":"https://firebasestorage.googleapis.com/v0/b/ehliyet-sinavim-01.appspot.com/o/Agustos%20Test%201%2F9.png?alt=media&token=81c7cdf1-839f-4657-a565-dcf7f09d5f18",
          "sections": {
            "A":"Dönel kavşağa",
            "B":"Açılan köprüye",
            "C":"Ana yol - tali yol kavşağına",
            "D":"Kontrollü demir yolu geçidine"
          },
          "selected":"",
          "correct": "C"
        },
        {
          "id": "29",
          "question":"Aşağıda soru işareti (?) ile gösterilen ve temel yaşam deteğinin 1. aşaması olan uygulama hangi seçenekte verilmiştir ?",
          "isQuestionImage": true,
          "isSectionImage": false,
          "imageURL":"https://firebasestorage.googleapis.com/v0/b/ehliyet-sinavim-01.appspot.com/o/Agustos%20Test%201%2F10.png?alt=media&token=130d0710-99b1-40bc-83af-790b321e2fce",
          "sections": {
            "A":"Kırık kontrolünün yapılması",
            "B":"Kanamanın kontrol edilmesi",
            "C":"Şok pozisyonunun verilmesi",
            "D":"Hava yolunun açıklığının sağlanması"
          },
          "selected":"",
          "correct": "D"
        },
        {
          "id": "30",
          "question":"Monoküler (tek gözü gören) kişiler, aşağıda verilen sürücü belgesi sınıflarından hangisini almak için başvuru yapabilir ?",
          "isQuestionImage": false,
          "isSectionImage": false,
          "imageURL":"",
          "sections": {
            "A":"B",
            "B":"C",
            "C":"D",
            "D":"E"
          },
          "selected":"",
          "correct": "A"
        },
        {
          "id": "31",
          "question":"Radyatör kapağının arızalı olması aşağıdakilerden hangisine neden olabilir ?",
          "isQuestionImage": false,
          "isSectionImage": false,
          "imageURL":"",
          "sections": {
            "A":"Motorun sağuk çalışmasına",
            "B":"Motorun hararet yapmasına",
            "C":"Fren hidroliğinin azalmasına",
            "D":"Bijon somunlarının gevşemesine"
          },
          "selected":"",
          "correct": "B"
        },
        {
          "id": "32",
          "question":"Koma halindeki kazazedeye aşağıdakilerden hangisi yapılmaz ?",
          "isQuestionImage": false,
          "isSectionImage": false,
          "imageURL":"",
          "sections": {
            "A":"Solunum ve nabız kontrolü",
            "B":"Sıkan giysilerin gevşetilmesi",
            "C":"Ağızdan yiyecek, içecek verilmesi",
            "D":"Ağız içinde yabancı cisim olup olmadığının kontrolü"
          },
          "selected":"",
          "correct": "C"
        },
        {
          "id": "33",
          "question":"Arkadan çarpma şeklindeki trafik kazalarının en önemli sebebi aşağıdakilerden hangisidir ?",
          "isQuestionImage": false,
          "isSectionImage": false,
          "imageURL":"",
          "sections": {
            "A":"Öndeki aracın durması",
            "B":"Öndeki aracın yavaşlaması",
            "C":"Görüş mesafesinin kötü olması",
            "D":"Takip mesafesi kurallarına uyulmaması"
          },
          "selected":"",
          "correct": "D"
        },
        {
          "id": "34",
          "question":"Araçta, yeni motorun alıştırılması(rodaj) döneminde aşağıdakilerden hangisine uyulmalıdır ?",
          "isQuestionImage": false,
          "isSectionImage": false,
          "imageURL":"",
          "sections": {
            "A":"Fazla süratten kaçınılmalıdır.",
            "B":"Ani duruş ve kalkış yapılmalıdır.",
            "C":"Sürekli sert ve ani fren yapılmalıdır.",
            "D":"Motor yüksek devirde çalıştırılmalıdır."
          },
          "selected":"",
          "correct": "A"
        },
        {
          "id": "35",
          "question":"Aşağıdakilerden hangisi çıkığın tanımıdır ?",
          "isQuestionImage": false,
          "isSectionImage": false,
          "imageURL":"",
          "sections": {
            "A":"Eklem bağları ve yüzeylerinin zedelenmesi",
            "B":"Eklem çevresindeki derinin zedelenmesi",
            "C":"Eklem yüzeylerinin birbirinden ayrılması",
            "D":"Eklem bağlarının kopması"
          },
          "selected":"",
          "correct": "C"
        },
        {
          "id": "36",
          "question":"I. İp, tel gibi kesici malzemelerin kullanılması \nII. Uygulamanınyapıldığı saatin bir kağıda yazılıp kazazedenin üzerine asılması \nIII.Uzvun koptuğu bölgeye en yakın ve deri bütünlüğü bozulmamış olan yere uygulanması \n\nVerilenlerden hangileri turnike uygulamasında dikkat edilecek hususlardandır ?",
          "isQuestionImage": false,
          "isSectionImage": false,
          "imageURL":"",
          "sections": {
            "A":"Yalnız I",
            "B":"I ve II",
            "C":"II ve III",
            "D":"I, II ve III"
          },
          "selected":"",
          "correct": "C"
        },
        {
          "id": "37",
          "question":"I. Kazanın yeri doğru ve açık şekilde belirtilmelidir. \nII. Yaralıların genel durumları ve sayıları bildirilmelidir. \nIII. Çağrıyı yapan, kimlik bilgilerini ve telefon numarasını vermelidir. \n\nYUkarıdakilerden hangileri ilk yardımda haberleşme ilkelerindendir ?",
          "isQuestionImage": false,
          "isSectionImage": false,
          "imageURL":"",
          "sections": {
            "A":"Yalnız I",
            "B":"I ve II",
            "C":"II ve III",
            "D":"I, II ve III"
          },
          "selected":"",
          "correct": "D"
        },
        {
          "id": "38",
          "question":"Aşağıdakilerden hangisi tehlikeli viraj yön levhasıdır ?",
          "isQuestionImage": false,
          "isSectionImage": true,
          "imageURL":"",
          "sections": {
            "A":"https://firebasestorage.googleapis.com/v0/b/ehliyet-sinavim-01.appspot.com/o/Agustos%20Test%201%2F11.png?alt=media&token=5ab1a7be-ff61-42ef-8b57-96de7fa908ee",
            "B":"https://firebasestorage.googleapis.com/v0/b/ehliyet-sinavim-01.appspot.com/o/Agustos%20Test%201%2F14.png?alt=media&token=9552f8dc-0582-445a-9245-5fd555ecf528",
            "C":"https://firebasestorage.googleapis.com/v0/b/ehliyet-sinavim-01.appspot.com/o/Agustos%20Test%201%2F12.png?alt=media&token=0ff70223-01e0-442d-a604-ffe70841dda7",
            "D":"https://firebasestorage.googleapis.com/v0/b/ehliyet-sinavim-01.appspot.com/o/Agustos%20Test%201%2F13.png?alt=media&token=6132a613-5b55-46f2-95d4-bc092ea3679d"
          },
          "selected":"",
          "correct": "A"
        },
        {
          "id": "39",
          "question":"Araçlar yüklenirken aşağıdakilerden hangisinın yapılması yasaktır ?",
          "isQuestionImage": false,
          "isSectionImage": false,
          "imageURL":"",
          "sections": {
            "A":"Gabarinin aşılması",
            "B":"Araç dengesinin korunması",
            "C":"Trafik güvenliğinin dikkate alınması",
            "D":"Taşıma sınırına ve dingil ağırlığına uyulması"
          },
          "selected":"",
          "correct": "A"
        },
        {
          "id": "40",
          "question":"Motorlu bisiklet, motosiklet ve sürücüleri ile ilgili olarak aşağıdakilerden hangisinin yapılması yasaktır ?",
          "isQuestionImage": false,
          "isSectionImage": false,
          "imageURL":"",
          "sections": {
            "A":"Geçme yaparken sinyal verilmesi",
            "B":"Yaya yolunda sürülmesi",
            "C":"Tehlikeli madde taşıyan araçların geçilmesi",
            "D":"Gidiş yönüne göre yolun en sağından seyredilmesi"
          },
          "selected":"",
          "correct": "B"
        },
        {
          "id": "41",
          "question":"Aşağıdaki davranışlardan hangisi trafik adabına sahip bir sürücü için uygundur ?",
          "isQuestionImage": false,
          "isSectionImage": false,
          "imageURL":"",
          "sections": {
            "A":"Trafik polisi yoksa kırmızı ışıkta geçmek",
            "B":"Sürekli şerit değiştirerek araç kullanmak",
            "C":"Denetim korkusu olmadan emniyet kemerini takmak",
            "D":"Elektronik denetleme sisteminin olmadığı yerlerde hız limitlerini aşmak"
          },
          "selected":"",
          "correct": "C"
        },
        {
          "id": "42",
          "question":"Işıklı trafik işaret cihazında, hangisinin yanması yolun trafiğe kapanmak üzere olduğunu bildirir ?",
          "isQuestionImage": false,
          "isSectionImage": false,
          "imageURL":"",
          "sections": {
            "A":"Yeşil ışıktan sonra yanan sarı ışık",
            "B":"Kırmızı ışıkla birlikte yanan sarı ışık",
            "C":"Aralıklı yanıp sönen sarı ışık",
            "D":"Aralıklı yanıp sönen kırmızı ışık"
          },
          "selected":"",
          "correct": "A"
        },
        {
          "id": "43",
          "question":"Şekle göre, yaya yolu ayrılmamış kara yolunda, olağan olarak yayaların ve hayvanların kullanacağı 1 ve 4 numaralı kısımlara ne ad verilir ?",
          "isQuestionImage": true,
          "isSectionImage": false,
          "imageURL":"https://firebasestorage.googleapis.com/v0/b/ehliyet-sinavim-01.appspot.com/o/Agustos%20Test%201%2F15.png?alt=media&token=b9b22eaf-e9e5-4f76-bf38-fd0bc0016b93",
          "sections": {
            "A":"Taşıt Yolu",
            "B":"Banket",
            "C":"Yaya geçidi",
            "D":"Platform"
          },
          "selected":"",
          "correct": "B"
        },
        {
          "id": "44",
          "question":"Şekle göre hangi numaralı araçlar hatalı park etmiştir ?",
          "isQuestionImage": true,
          "isSectionImage": false,
          "imageURL":"https://firebasestorage.googleapis.com/v0/b/ehliyet-sinavim-01.appspot.com/o/Agustos%20Test%201%2F16.png?alt=media&token=b40e1609-49ae-4823-b8cc-5d0f3af11945",
          "sections": {
            "A":"Yalnız III",
            "B":"I ve II",
            "C":"I ve III",
            "D":"I, II ve III"
          },
          "selected":"",
          "correct": "C"
        },
        {
          "id": "45",
          "question":"Kavrama (debriyaj) sistemi, motorun hareketinin hangi aktarma organına iletilmesinde veya kesilmesinde görev yapar ?",
          "isQuestionImage": false,
          "isSectionImage": false,
          "imageURL":"",
          "sections": {
            "A":"Volana",
            "B":"Marş motoruna",
            "C":"Fren balatalarına",
            "D":"Vites kutusuna"
          },
          "selected":"",
          "correct": "D"
        },
        {
          "id": "46",
          "question":"Bir trafik kazası sonucunda yaralanan kazazedenin durumunun ağırlığını ve ciddeyitin gösteren bulgulardan biride bilinç düzeyidir. \n \nAşağıdakilerden hangisi 1. derece bilinç düzeyini gösteren bir bulgudur ?",
          "isQuestionImage": false,
          "isSectionImage": false,
          "imageURL":"",
          "sections": {
            "A":"Sözlü ve gürültülü uyarılara cevap vermesi",
            "B":"Göz bebeklerinin farklı büyüklükte olması",
            "C":"Ağrılı uyaranlara cevap vermesi",
            "D":"Tüm uyaranlara tepkisiz olması"
          },
          "selected":"",
          "correct": "A"
        },
        {
          "id": "47",
          "question":"Araç hareket ettirilmek istenildiğinde rahat harekete geçmiyor, zorlanıyorsa sebebi aşağıdakilerden hangisidir ?",
          "isQuestionImage": false,
          "isSectionImage": false,
          "imageURL":"",
          "sections": {
            "A":"Jigle çekilidir.",
            "B":"El freni çekilidir.",
            "C":"Motor yağı eksiktir.",
            "D":"Lastik havası fazladır."
          },
          "selected":"",
          "correct": "B"
        },
        {
          "id": "48",
          "question":"Şekildeki kara yolu üzerinde soru işareti (?) ile gösterilen, çizgilerle belirlenmiş alana ne ad verilir ?",
          "isQuestionImage": true,
          "isSectionImage": false,
          "imageURL":"https://firebasestorage.googleapis.com/v0/b/ehliyet-sinavim-01.appspot.com/o/Agustos%20Test%201%2F17.png?alt=media&token=7d1c2f7d-d3b6-437a-b556-9189f86f00b0",
          "sections": {
            "A":"Banket",
            "B":"Yaya yolu",
            "C":"Yaya geçidi",
            "D":"Bisiklet yolu"
          },
          "selected":"",
          "correct": "C"
        },
        {
          "id": "49",
          "question":"2918 sayılı trafik kanununa göre ilk defa sürücü belgesi alanlar ile herhangi sebeple sürücü belgesi iptal edilmiş olup da yeniden sürücü belgesi alanlar, belgenin alındığı tarihten itibaren kaç yıl süreyle aday sürücü olarak kabul edilir ?",
          "isQuestionImage": false,
          "isSectionImage": false,
          "imageURL":"",
          "sections": {
            "A":"2",
            "B":"3",
            "C":"5",
            "D":"10"
          },
          "selected":"",
          "correct": "A"
        },
        {
          "id": "50",
          "question":"Şekle göre, hangi numaralı araç sürücüsünün davranışı asli kusurlu halleriden sayılır ?",
          "isQuestionImage": true,
          "isSectionImage": false,
          "imageURL":"https://firebasestorage.googleapis.com/v0/b/ehliyet-sinavim-01.appspot.com/o/Agustos%20Test%201%2F18.png?alt=media&token=33f886c1-a849-4775-bcf3-67ffc24614f1",
          "sections": {
            "A":"1",
            "B":"2",
            "C":"3",
            "D":"4"
          },
          "selected":"",
          "correct": "B"
        }
      ]
    }
  ]
}
